@startuml

title __GUI's Class Diagram__\n

  namespace fmg.ausbildungsstart.projekt.gui {
    class fmg.ausbildungsstart.projekt.gui.ControlDialog {
        - history : ArrayList<String>
        - historyList : JList
        + ControlDialog()
        + addToHistory()
        + getHistory()
        + reset()
    }
  }
  

  namespace fmg.ausbildungsstart.projekt.gui {
    class fmg.ausbildungsstart.projekt.gui.GUI {
        - airplaneImage : Image
        - airplanes : ArrayList<Airplane>
        - backbuffer : Image
        - backgroundImage : Image
        - display : Graphics
        {static} - runnwayLocation : Rectangle[]
        + Draw()
        + GUI()
        + addAirplane()
        + init()
        + paint()
        + reset()
        - updateAirplanes()
    }
  }
  

  namespace fmg.ausbildungsstart.projekt.gui {
    class fmg.ausbildungsstart.projekt.gui.main {
        {static} + main()
    }
  }
  

  fmg.ausbildungsstart.projekt.gui.ControlDialog -up-|> javax.swing.JFrame
  fmg.ausbildungsstart.projekt.gui.GUI -up-|> javax.swing.JFrame
  fmg.ausbildungsstart.projekt.gui.GUI o-- fmg.ausbildungsstart.projekt.gui.ControlDialog : controls
  fmg.ausbildungsstart.projekt.gui.GUI o-- fmg.ausbildungsstart.projekt.logic.AirplaneManager : manager


right footer


PlantUML diagram generated by SketchIt! (https://bitbucket.org/pmesmeur/sketch.it)
For more information about this tool, please contact philippe.mesmeur@gmail.com
endfooter

@enduml
